{
  "host": "santihans-api.herokuapp.com",
  "port": "${process.env.PORT || 1337}",
  "autoReload": {
    "enabled": false
  },
  "cron": {
    "enabled": false
  },
  "admin": {
    "path": "/dashboard"
  }
}
