{
  "connection": "default",
  "collectionName": "project",
  "info": {
    "name": "project",
    "description": ""
  },
  "options": {
    "timestamps": true
  },
  "attributes": {
    "slug": {
      "unique": true,
      "type": "string",
      "required": true
    },
    "date": {
      "type": "date",
      "required": true
    },
    "title": {
      "type": "string",
      "required": true
    },
    "tags": {
      "type": "string"
    },
    "client": {
      "type": "string"
    },
    "selected": {
      "type": "boolean"
    },
    "headerImage": {
      "model": "file",
      "via": "related",
      "plugin": "upload"
    },
    "body-en": {
      "type": "text"
    },
    "body-de": {
      "type": "text"
    },
    "abstract-de": {
      "type": "string"
    },
    "abstract-en": {
      "type": "string"
    },
    "introImage": {
      "model": "file",
      "via": "related",
      "plugin": "upload"
    },
    "gallery": {
      "collection": "file",
      "via": "related",
      "plugin": "upload"
    }
  }
}