{
  "project": {
    "attributes": {
      "slug": {
        "appearance": ""
      },
      "date": {
        "appearance": ""
      },
      "title": {
        "appearance": ""
      },
      "tags": {
        "appearance": ""
      },
      "client": {
        "appearance": ""
      },
      "selected": {
        "appearance": ""
      },
      "body-en": {
        "appearance": "WYSIWYG"
      },
      "body-de": {
        "appearance": "WYSIWYG"
      },
      "abstract-de": {
        "appearance": ""
      },
      "abstract-en": {
        "appearance": ""
      }
    }
  }
}